[
  {
    "created_by": "RyuChan",
    "description": "",
    "favorite_count": 0,
    "id": 8556173,
    "iso_639_1": "zh",
    "item_count": 86,
    "items": [
      {
        "adult": false,
        "backdrop_path": "/yvKrycViRMQcIgdnjsM5JGNWU4Q.jpg",
        "id": 1429,
        "name": "进击的巨人",
        "original_name": "進撃の巨人",
        "overview": "曾几何时，世界上突然出现无数身形庞大的巨人，普通人类的生命受到前所未有的威胁。为了保护自身安全，最后的人类筑起三座高墙：玛莉亚、露丝和希娜。人类迎来了长达一个世纪的和平岁月，却也让自己成为圈养在笼中的鸟儿，屈辱地失去自由。845 年，高达 60 米的超大型巨人和铠之巨人登场， 摧毁了最外层的玛莉亚之壁，也惊醒了人类似乎永远不会苏醒的长梦。在此事件中，不愿蜷缩在墙内的少年艾伦·耶格尔亲眼目睹母亲遇害，由此更坚定了他加入调查兵团的决心。在此之后，艾伦和青梅竹马三笠·阿克曼、好友阿尔敏·亚鲁雷特加入第 104 期训练兵团，发誓成为足以消灭所有巨人的英勇战士。百年的和平结束，人类和巨人的战争再度拉开序幕。",
        "poster_path": "/by4f66EHK82OZNyEuYbOW5RxFBa.jpg",
        "media_type": "tv",
        "original_language": "ja",
        "genre_ids": [16, 10765, 10759],
        "popularity": 20.6648,
        "first_air_date": "2013-04-07",
        "vote_average": 8.67,
        "vote_count": 6948,
        "origin_country": [
          "JP"
        ]
      },
      {
        "adult": false,
        "backdrop_path": "/gmECX1DvFgdUPjtio2zaL8BPYPu.jpg",
        "id": 95479,
        "name": "咒术回战",
        "original_name": "呪術廻戦",
        "overview": "少年战斗着——「为寻求正确的死亡」。辛酸·后悔·耻辱人类产生的负面情感，化为诅咒，潜入日常生活诅咒是蔓延于世界的祸源，最糟糕的情况下，会让人类踏入死亡，并且诅咒只能以诅咒祓除。虎杖悠仁是一位体育万能的高中生，某天他为了从“咒物”危机中解救学姐，而吞下了被诅咒的手指“两面宿傩之指”，让“宿傩”这种诅咒跟自己合而为一。在最强咒术师五条悟的指引下，进入对诅咒专门机关「东京都立咒术高等专门学校」，并遇到了伏黑惠与钉崎野蔷薇这两位同学。某日，突然出现“特级咒物”，他们三人就奉命到现场支援。为了实现爷爷要他“助人”的遗言，虎杖将会继续与“诅咒”奋斗下去。为了祓除诅咒而成为诅咒的少年，无法回头的壮阔故事开始了——",
        "poster_path": "/kdE1ALF5G6DFMyDU67AyyUklEtn.jpg",
        "media_type": "tv",
        "original_language": "ja",
        "genre_ids": [16, 10759, 10765],
        "popularity": 44.8996,
        "first_air_date": "2020-10-03",
        "vote_average": 8.6,
        "vote_count": 3936,
        "origin_country": [
          "JP"
        ]
      },
      {
        "adult": false,
        "backdrop_path": "/rcEDPOOOUTLFxLLQJggfLffbofe.jpg",
        "id": 810693,
        "title": "咒术回战 0 剧场版",
        "original_title": "劇場版 呪術廻戦 0",
        "overview": "乙骨忧太是一个高中生，他正面临着一个严重的问题，青梅竹马理香变成了一个咒灵，不会让他一个人呆着。由于理香不是普通的咒灵，他的困境被咒术高专的老师五条悟注意到了。五条说服忧太入学，但他赶得及吗？",
        "poster_path": "/qiodOI39faRytzKvmq1C8IUjxaX.jpg",
        "media_type": "movie",
        "original_language": "ja",
        "genre_ids": [16, 28, 14],
        "popularity": 7.8121,
        "release_date": "2021-12-24",
        "video": false,
        "vote_average": 8.12,
        "vote_count": 1541
      },
      {
        "adult": false,
        "backdrop_path": "/f1yRwsEWO8gehrVKNtZbeuKXKAh.jpg",
        "id": 69291,
        "name": "小林家的龙女仆",
        "original_name": "小林さんちのメイドラゴン",
        "overview": "以女仆的身份，闯入住在公寓的小林的生活，并与她同居的托尔。托尔基本上将人类视为下等而愚蠢的生物，但由于小林有着过去帮助过自己的恩惠，因而全力地对她进行侍奉。今天也在用尽办法地努力着。龙娘与独居的辛苦OL之间的人外日常系喜剧！",
        "poster_path": "/pAFFgHxYNoqtCSrIylcsUKCzqSN.jpg",
        "media_type": "tv",
        "original_language": "ja",
        "genre_ids": [16, 35, 10765],
        "popularity": 8.2234,
        "first_air_date": "2017-01-12",
        "vote_average": 8.334,
        "vote_count": 841,
        "origin_country": [
          "JP"
        ]
      },
      {
        "adult": false,
        "backdrop_path": "/cGgqLzBGUY0dxsE5i3W7SXBGRbe.jpg",
        "id": 30977,
        "name": "某科学的超电磁炮",
        "original_name": "とある科学の超電磁砲",
        "overview": "故事发生在面积占据东京都西部的三分之一，居住着 230 万名人口，其中八成人口是学生的巨大都市“学园都市”。学园都市和外部隔离，研究最尖端科技。所有学生都接受超能力开发，并大都借由药物、催眠术与通电刺激等方式取得超能力。有各种类型不同能力，以范围和威力分为无能力者（Level 0）、低能力者（Level 1）、异能力者（Level 2）、强能力者（Level 3）、大能力者（Level 4）和超能力者（Level 5）。主角御坂美琴是学园都市中仅七位超能力者（Level 5）的其中一人，排行第三。她是拥有操纵电击能力的“电击使”，因其特有的绝招（将硬币以 3 倍音速的初速发射）“超电磁炮”而得名。",
        "poster_path": "/7FiiNjhJr1NgCjQArQupVEP6i4s.jpg",
        "media_type": "tv",
        "original_language": "ja",
        "genre_ids": [16, 10759, 35, 10765],
        "popularity": 8.7316,
        "first_air_date": "2009-10-02",
        "vote_average": 7.3,
        "vote_count": 111,
        "origin_country": [
          "JP"
        ]
      },
      {
        "adult": false,
        "backdrop_path": "/3GQKYh6Trm8pxd2AypovoYQf4Ay.jpg",
        "id": 85937,
        "name": "鬼灭之刃",
        "original_name": "鬼滅の刃",
        "overview": "时值日本大正时期。\n\n传说太阳下山后，有恶鬼出没吃人。亦有猎鬼人斩杀恶鬼、保护人们。\n\n卖炭少年炭治郎，他那平凡而幸福的日常生活，在家人遭到恶鬼袭击的那一天发生了剧变。母亲与四个弟弟妹妹惨遭杀害，而与他一起生还的妹妹祢豆子亦异变成凶暴的鬼。\n\n在猎鬼人的指引下，立志成为猎鬼人的炭治郎与变成鬼却尚存理智的祢豆子踏上了旅程。通过艰苦的剑术修行与赌命试炼，炭治郎成为了猎鬼人组织“鬼杀队”的一员。\n\n为了让妹妹祢豆子变回人类，为了讨伐杀害家人的恶鬼，为了斩断悲伤的连锁，少年与鬼的战斗不曾停歇。\n\n幸福被破坏之时，总是弥漫着鲜血的味道。纵然我身俱灭，定将恶鬼斩杀！血风剑戟冒险谭，开幕！",
        "poster_path": "/8yL6oB8eGvnbJr4W1fTdHrI103R.jpg",
        "media_type": "tv",
        "original_language": "ja",
        "genre_ids": [16, 10759, 10765],
        "popularity": 16.0945,
        "first_air_date": "2019-04-06",
        "vote_average": 8.643,
        "vote_count": 6839,
        "origin_country": [
          "JP"
        ]
      }
    ],
    "name": "番剧",
    "page": 5,
    "poster_path": null,
    "total_pages": 5,
    "total_results": 86
  }
]
